{
  "id": 2,
  "month": 11,
  "day": 29,
  "year": 2020,
  "averages": {
    "aqi": 1.3333,
    "co": 590.243333,
    "no": 0.003333,
    "no2": 13.23333,
    "o3": 50.07,
    "so2": 2.083333,
    "pm2_5": 8.166667,
    "pm10": 10.4066667,
    "nh3": 2.13
  },
  "worst_cities": [
    2,
    1,
    3
  ],
  "worst_countries": [
    "US",
    "AF",
    "FR"
  ]
}