[
    {
        "label": "2020-11-27",
        "value": 80.112
    },
    {
        "label": "2020-11-28",
        "value": 78.53
    },
    {
        "label": "2020-11-29",
        "value": 78.88
    },
    {
        "label": "2020-11-30",
        "value": 85.704
    },
    {
        "label": "2020-12-01",
        "value": 88.002
    },
    {
        "label": "2020-12-02",
        "value": 88.615
    },
    {
        "label": "2020-12-03",
        "value": 84.665
    },
    {
        "label": "2020-12-04",
        "value": 81.329
    },
    {
        "label": "2020-12-05",
        "value": 81.198
    },
    {
        "label": "2020-12-06",
        "value": 80.851
    },
    {
        "label": "2020-12-07",
        "value": 82.044
    },
    {
        "label": "2020-12-08",
        "value": 83.206
    },
    {
        "label": "2020-12-09",
        "value": 86.219
    },
    {
        "label": "2020-12-10",
        "value": 90.637
    },
    {
        "label": "2020-12-11",
        "value": 93.614
    },
    {
        "label": "2020-12-12",
        "value": 96.055
    },
    {
        "label": "2020-12-13",
        "value": 81.195
    },
    {
        "label": "2020-12-14",
        "value": 74.239
    },
    {
        "label": "2020-12-15",
        "value": 80.105
    },
    {
        "label": "2020-12-16",
        "value": 83.347
    },
    {
        "label": "2020-12-17",
        "value": 83.955
    },
    {
        "label": "2020-12-18",
        "value": 82.029
    },
    {
        "label": "2020-12-19",
        "value": 81.75
    },
    {
        "label": "2020-12-20",
        "value": 80.921
    },
    {
        "label": "2020-12-21",
        "value": 88.088
    },
    {
        "label": "2020-12-22",
        "value": 96.536
    },
    {
        "label": "2020-12-23",
        "value": 95.636
    },
    {
        "label": "2020-12-24",
        "value": 95.089
    },
    {
        "label": "2020-12-25",
        "value": 95.914
    },
    {
        "label": "2020-12-26",
        "value": 93.707
    },
    {
        "label": "2020-12-27",
        "value": 98.3
    },
    {
        "label": "2020-12-28",
        "value": 98.628
    },
    {
        "label": "2020-12-29",
        "value": 83.317
    },
    {
        "label": "2020-12-30",
        "value": 77.656
    },
    {
        "label": "2020-12-31",
        "value": 80.977
    },
    {
        "label": "2021-01-01",
        "value": 87.636
    },
    {
        "label": "2021-01-02",
        "value": 92.47
    },
    {
        "label": "2021-01-03",
        "value": 87.022
    },
    {
        "label": "2021-01-04",
        "value": 85.099
    },
    {
        "label": "2021-01-05",
        "value": 79.874
    },
    {
        "label": "2021-01-06",
        "value": 81.925
    },
    {
        "label": "2021-01-07",
        "value": 73.046
    },
    {
        "label": "2021-01-08",
        "value": 78.93
    },
    {
        "label": "2021-01-09",
        "value": 80.064
    },
    {
        "label": "2021-01-10",
        "value": 79.357
    },
    {
        "label": "2021-01-11",
        "value": 80.657
    },
    {
        "label": "2021-01-12",
        "value": 82.279
    },
    {
        "label": "2021-01-13",
        "value": 87.869
    },
    {
        "label": "2021-01-14",
        "value": 95.082
    },
    {
        "label": "2021-01-15",
        "value": 100.585
    },
    {
        "label": "2021-01-16",
        "value": 94.161
    },
    {
        "label": "2021-01-17",
        "value": 84.149
    },
    {
        "label": "2021-01-18",
        "value": 85.435
    },
    {
        "label": "2021-01-19",
        "value": 90.606
    },
    {
        "label": "2021-01-20",
        "value": 93.723
    },
    {
        "label": "2021-01-21",
        "value": 101.538
    },
    {
        "label": "2021-01-22",
        "value": 105.872
    },
    {
        "label": "2021-01-23",
        "value": 103.784
    },
    {
        "label": "2021-01-24",
        "value": 96.303
    },
    {
        "label": "2021-01-25",
        "value": 88.031
    },
    {
        "label": "2021-01-26",
        "value": 93.338
    },
    {
        "label": "2021-01-27",
        "value": 89.043
    },
    {
        "label": "2021-01-29",
        "value": 89.323
    },
    {
        "label": "2021-01-30",
        "value": 87.663
    },
    {
        "label": "2021-01-31",
        "value": 88.366
    },
    {
        "label": "2021-02-01",
        "value": 90.937
    },
    {
        "label": "2021-02-02",
        "value": 90.522
    },
    {
        "label": "2021-02-03",
        "value": 95.045
    },
    {
        "label": "2021-02-04",
        "value": 94.37
    },
    {
        "label": "2021-02-05",
        "value": 92.477
    },
    {
        "label": "2021-02-06",
        "value": 94.94
    },
    {
        "label": "2021-02-07",
        "value": 91.069
    },
    {
        "label": "2021-02-08",
        "value": 85.186
    },
    {
        "label": "2021-02-09",
        "value": 84.958
    },
    {
        "label": "2021-02-10",
        "value": 92.198
    },
    {
        "label": "2021-02-11",
        "value": 100.403
    },
    {
        "label": "2021-02-12",
        "value": 99.34
    },
    {
        "label": "2021-02-13",
        "value": 99.364
    },
    {
        "label": "2021-02-14",
        "value": 93.978
    },
    {
        "label": "2021-02-15",
        "value": 88.986
    },
    {
        "label": "2021-02-16",
        "value": 88.823
    },
    {
        "label": "2021-02-17",
        "value": 90.492
    },
    {
        "label": "2021-02-18",
        "value": 101.463
    },
    {
        "label": "2021-02-19",
        "value": 103.678
    },
    {
        "label": "2021-02-20",
        "value": 105.282
    },
    {
        "label": "2021-02-21",
        "value": 108.337
    },
    {
        "label": "2021-02-22",
        "value": 109.646
    },
    {
        "label": "2021-02-23",
        "value": 95.794
    },
    {
        "label": "2021-02-24",
        "value": 95.582
    },
    {
        "label": "2021-02-25",
        "value": 92.362
    },
    {
        "label": "2021-02-26",
        "value": 92.269
    },
    {
        "label": "2021-02-27",
        "value": 88.31
    },
    {
        "label": "2021-02-28",
        "value": 83.87
    },
    {
        "label": "2021-03-01",
        "value": 78.311
    },
    {
        "label": "2021-03-02",
        "value": 82.358
    },
    {
        "label": "2021-03-03",
        "value": 89.636
    },
    {
        "label": "2021-03-04",
        "value": 96.244
    },
    {
        "label": "2021-03-05",
        "value": 93.33
    },
    {
        "label": "2021-03-06",
        "value": 79.245
    },
    {
        "label": "2021-03-07",
        "value": 72.916
    },
    {
        "label": "2021-03-08",
        "value": 76.495
    },
    {
        "label": "2021-03-09",
        "value": 79.699
    },
    {
        "label": "2021-03-10",
        "value": 83.309
    },
    {
        "label": "2021-03-11",
        "value": 83.553
    },
    {
        "label": "2021-03-12",
        "value": 89.189
    },
    {
        "label": "2021-03-13",
        "value": 85.236
    },
    {
        "label": "2021-03-14",
        "value": 83.899
    },
    {
        "label": "2021-03-15",
        "value": 85.752
    },
    {
        "label": "2021-03-16",
        "value": 84.086
    },
    {
        "label": "2021-03-17",
        "value": 83.374
    },
    {
        "label": "2021-03-18",
        "value": 81.383
    },
    {
        "label": "2021-03-19",
        "value": 83.582
    },
    {
        "label": "2021-03-20",
        "value": 78.251
    },
    {
        "label": "2021-03-21",
        "value": 70.94
    },
    {
        "label": "2021-03-22",
        "value": 75.075
    },
    {
        "label": "2021-03-23",
        "value": 79.466
    },
    {
        "label": "2021-03-24",
        "value": 85.928
    },
    {
        "label": "2021-03-25",
        "value": 92.655
    },
    {
        "label": "2021-03-26",
        "value": 91.489
    },
    {
        "label": "2021-03-27",
        "value": 94.28
    },
    {
        "label": "2021-03-28",
        "value": 89.864
    },
    {
        "label": "2021-03-29",
        "value": 85.429
    },
    {
        "label": "2021-03-30",
        "value": 91.917
    },
    {
        "label": "2021-03-31",
        "value": 86.769
    },
    {
        "label": "2021-04-01",
        "value": 80.881
    },
    {
        "label": "2021-04-02",
        "value": 77.019
    },
    {
        "label": "2021-04-03",
        "value": 75.963
    },
    {
        "label": "2021-04-04",
        "value": 70.919
    },
    {
        "label": "2021-04-05",
        "value": 76.599
    },
    {
        "label": "2021-04-06",
        "value": 77.013
    },
    {
        "label": "2021-04-07",
        "value": 78.707
    },
    {
        "label": "2021-04-08",
        "value": 77.892
    },
    {
        "label": "2021-04-09",
        "value": 78.266
    },
    {
        "label": "2021-04-10",
        "value": 78.942
    },
    {
        "label": "2021-04-11",
        "value": 74.974
    },
    {
        "label": "2021-04-12",
        "value": 79.042
    },
    {
        "label": "2021-04-13",
        "value": 76.778
    },
    {
        "label": "2021-04-14",
        "value": 73.875
    },
    {
        "label": "2021-04-15",
        "value": 72.987
    },
    {
        "label": "2021-04-16",
        "value": 74.701
    },
    {
        "label": "2021-04-17",
        "value": 73.395
    },
    {
        "label": "2021-04-18",
        "value": 71.901
    },
    {
        "label": "2021-04-19",
        "value": 72.645
    },
    {
        "label": "2021-04-20",
        "value": 76.704
    }
]