{
    "id": 1,
    "name": "Kabul",
    "region": 13,
    "country": "AF",
    "lat": 34.516667,
    "lng": 69.183333,
    "rank": 3,
    "past_aq": [
        {
            "id": 0,
            "month": 11,
            "day": 27,
            "year": 2020,
            "aqi": 3,
            "co": 2109.53,
            "no": 0,
            "no2": 20.05,
            "o3": 53.64,
            "so2": 1.54,
            "pm2_5": 20.32,
            "pm10": 25.4,
            "nh3": 5.23
        },
        {
            "id": 1,
            "month": 11,
            "day": 28,
            "year": 2020,
            "aqi": 2,
            "co": 1708.98,
            "no": 0,
            "no2": 16.45,
            "o3": 48.64,
            "so2": 1.01,
            "pm2_5": 15.1,
            "pm10": 18.17,
            "nh3": 3.99
        },
        {
            "id": 2,
            "month": 11,
            "day": 29,
            "year": 2020,
            "aqi": 2,
            "co": 1228.33,
            "no": 0,
            "no2": 11.65,
            "o3": 48.64,
            "so2": 1.07,
            "pm2_5": 11.26,
            "pm10": 14.64,
            "nh3": 4.18
        },
        {
            "id": 3,
            "month": 11,
            "day": 30,
            "year": 2020,
            "aqi": 3,
            "co": 2162.93,
            "no": 0,
            "no2": 22.96,
            "o3": 30.76,
            "so2": 2.62,
            "pm2_5": 20.58,
            "pm10": 26.15,
            "nh3": 7.35
        },
        {
            "id": 4,
            "month": 12,
            "day": 1,
            "year": 2020,
            "aqi": 2,
            "co": 1441.96,
            "no": 0,
            "no2": 13.02,
            "o3": 38.98,
            "so2": 1.16,
            "pm2_5": 13.71,
            "pm10": 17.63,
            "nh3": 4.24
        },
        {
            "id": 5,
            "month": 12,
            "day": 2,
            "year": 2020,
            "aqi": 2,
            "co": 1668.93,
            "no": 0,
            "no2": 15.42,
            "o3": 27.18,
            "so2": 1.16,
            "pm2_5": 17.77,
            "pm10": 22.77,
            "nh3": 3.26
        },
        {
            "id": 6,
            "month": 12,
            "day": 3,
            "year": 2020,
            "aqi": 2,
            "co": 1455.31,
            "no": 0,
            "no2": 13.37,
            "o3": 34.33,
            "so2": 0.89,
            "pm2_5": 16.44,
            "pm10": 20.95,
            "nh3": 3.07
        }
    ]
}